<?xml version="1.0" encoding="UTF-8" standalone="no"?>
<!DOCTYPE svg PUBLIC "-//W3C//DTD SVG 1.1//EN" "http://www.w3.org/Graphics/SVG/1.1/DTD/svg11.dtd">
<svg width="100%" height="100%" viewBox="0 0 508 508" version="1.1" xmlns="http://www.w3.org/2000/svg" xmlns:xlink="http://www.w3.org/1999/xlink" xml:space="preserve" xmlns:serif="http://www.serif.com/" style="fill-rule:evenodd;clip-rule:evenodd;stroke-linejoin:round;stroke-miterlimit:1.41421;">
    <circle cx="254" cy="254" r="254" style="fill:rgb(39,183,211);"/>
    <g transform="matrix(0.715513,-0.698599,0.698599,0.715513,-96.0419,253.555)">
        <path d="M263.3,87.5C176.5,87.5 106.1,157.9 106.1,244.7C106.1,271.9 113,297.5 125.2,319.8L106.1,401.9L188.2,382.8C210.5,395 236.1,401.9 263.3,401.9C350.1,401.9 420.5,331.5 420.5,244.7C420.5,157.9 350.1,87.5 263.3,87.5Z" style="fill:white;fill-rule:nonzero;"/>
    </g>
    <path d="M271.6,280.3L242.3,280.3L242.3,264.5C242.3,257.6 243.1,252.4 244.8,249.1C246.4,245.7 250,241.3 255.6,235.8L274.5,216.9C278.5,212.6 280.5,207.2 280.5,200.8C280.5,194.4 278.4,189.1 274.3,184.9C270.1,180.7 264.8,178.5 258.2,178.5C251.6,178.5 246.2,180.5 241.7,184.6C237.3,188.7 234.7,194.1 234,200.8L202.6,200.8C204.3,185.4 210.3,173.4 220.6,164.7C230.9,156 243.7,151.6 259.1,151.6C274.5,151.6 287,155.8 296.7,164.2C306.4,172.6 311.2,184.3 311.2,199.3C311.2,209.7 308.4,218.3 302.7,225.2C299.4,229.3 296.9,232.3 295.2,234C293.5,235.7 291.2,237.9 288.3,240.6C285.4,243.3 283,245.6 281,247.6C279,249.6 277.4,251.3 276.2,252.7C273.1,256.5 271.5,261.9 271.5,268.8L271.5,280.3L271.6,280.3ZM257.5,337.9C252.1,337.9 247.4,336 243.4,332.3C239.4,328.6 237.4,324.1 237.4,318.8C237.4,313.5 239.3,309 243.2,305.2C247.1,301.4 251.8,299.5 257.2,299.5C262.6,299.5 267.3,301.4 271.3,305.1C275.3,308.8 277.2,313.3 277.2,318.6C277.2,323.9 275.3,328.4 271.4,332.2C267.6,336 262.9,337.9 257.5,337.9Z" style="fill:rgb(255,112,88);fill-rule:nonzero;"/>
</svg>
