<?xml version="1.0" encoding="UTF-8" standalone="no"?>
<!DOCTYPE svg PUBLIC "-//W3C//DTD SVG 1.1//EN" "http://www.w3.org/Graphics/SVG/1.1/DTD/svg11.dtd">
<svg width="100%" height="100%" viewBox="0 0 450 159" version="1.1" xmlns="http://www.w3.org/2000/svg" xmlns:xlink="http://www.w3.org/1999/xlink" xml:space="preserve" xmlns:serif="http://www.serif.com/" style="fill-rule:evenodd;clip-rule:evenodd;stroke-linejoin:round;stroke-miterlimit:1.41421;">
    <g transform="matrix(1.0722,0,0,1.23317,-181.834,-605.938)">
        <path d="M537.875,545.659C537.875,520.42 514.308,499.93 485.281,499.93L270.668,499.93C241.64,499.93 218.073,520.42 218.073,545.659L218.073,566.076C218.073,591.315 241.64,611.805 270.668,611.805L485.281,611.805C514.308,611.805 537.875,591.315 537.875,566.076L537.875,545.659Z" style="fill:rgb(91,176,94);"/>
    </g>
    <g transform="matrix(1,0,0,1,-18.9252,21.2369)">
        <text x="167.388px" y="88.085px" style="font-family:'Erial';font-size:96px;fill:white;">0-5</text>
    </g>
</svg>
