<?xml version="1.0" encoding="UTF-8" standalone="no"?>
<!DOCTYPE svg PUBLIC "-//W3C//DTD SVG 1.1//EN" "http://www.w3.org/Graphics/SVG/1.1/DTD/svg11.dtd">
<svg width="100%" height="100%" viewBox="0 0 450 159" version="1.1" xmlns="http://www.w3.org/2000/svg" xmlns:xlink="http://www.w3.org/1999/xlink" xml:space="preserve" xmlns:serif="http://www.serif.com/" style="fill-rule:evenodd;clip-rule:evenodd;stroke-linejoin:round;stroke-miterlimit:1.41421;">
    <g transform="matrix(1.0722,0,0,1.41684,-181.834,-708.309)">
        <path d="M537.875,545.659C537.875,520.42 510.798,499.93 477.448,499.93L278.501,499.93C245.15,499.93 218.073,520.42 218.073,545.659L218.073,566.076C218.073,591.315 245.15,611.805 278.501,611.805L477.448,611.805C510.798,611.805 537.875,591.315 537.875,566.076L537.875,545.659Z" style="fill:rgb(91,176,94);"/>
    </g>
    <g transform="matrix(1,0,0,1,65.5717,106.747)">
        <path d="M44.629,-60.928C45.596,-60.928 46.45,-60.586 47.189,-59.904C47.929,-59.221 48.298,-58.368 48.298,-57.344C48.298,-56.377 47.929,-55.538 47.189,-54.826C46.45,-54.115 45.596,-53.76 44.629,-53.76L15.189,-53.76L15.189,-34.816L40.277,-34.816C41.244,-34.816 42.069,-34.46 42.752,-33.749C43.434,-33.038 43.776,-32.199 43.776,-31.232C43.776,-30.208 43.434,-29.355 42.752,-28.672C42.069,-27.989 41.244,-27.648 40.277,-27.648L15.189,-27.648L15.189,-4.011C15.189,-2.873 14.791,-1.906 13.995,-1.109C13.198,-0.313 12.231,0.085 11.093,0.085C10.012,0.085 9.088,-0.313 8.32,-1.109C7.552,-1.906 7.168,-2.873 7.168,-4.011L7.168,-27.989C6.258,-28.103 5.49,-28.487 4.864,-29.141C4.238,-29.795 3.925,-30.606 3.925,-31.573C3.925,-32.483 4.238,-33.28 4.864,-33.963C5.49,-34.645 6.258,-35.043 7.168,-35.157L7.168,-53.76C6.258,-53.874 5.49,-54.258 4.864,-54.912C4.238,-55.566 3.925,-56.377 3.925,-57.344C3.925,-58.368 4.295,-59.221 5.035,-59.904C5.774,-60.586 6.628,-60.928 7.595,-60.928L44.629,-60.928Z" style="fill:white;fill-rule:nonzero;"/>
        <path d="M91.392,-7.509C92.416,-7.509 93.283,-7.14 93.994,-6.4C94.705,-5.66 95.061,-4.779 95.061,-3.755C95.061,-2.731 94.705,-1.863 93.994,-1.152C93.283,-0.441 92.416,-0.085 91.392,-0.085L87.722,-0.085C86.926,-0.085 86.229,-0.299 85.632,-0.725C85.034,-1.152 84.622,-1.764 84.394,-2.56C84.281,-2.844 84.195,-3.157 84.138,-3.499C84.081,-3.783 84.025,-4.096 83.968,-4.437C83.911,-4.779 83.882,-5.12 83.882,-5.461C81.038,-3.129 78.393,-1.479 75.946,-0.512C73.216,0.455 70.457,0.939 67.669,0.939C62.834,0.939 59.136,-0.256 56.576,-2.645C54.016,-4.921 52.736,-7.936 52.736,-11.691C52.736,-13.966 53.219,-15.9 54.186,-17.493C55.154,-19.371 56.405,-20.821 57.941,-21.845C58.738,-22.414 59.605,-22.898 60.544,-23.296C61.482,-23.694 62.435,-24.035 63.402,-24.32C64.142,-24.491 65.052,-24.661 66.133,-24.832C67.214,-25.003 68.494,-25.202 69.973,-25.429C73.045,-25.771 75.662,-26.155 77.824,-26.581C79.985,-27.008 81.777,-27.449 83.2,-27.904C83.257,-28.416 83.285,-28.843 83.285,-29.184C83.285,-29.525 83.285,-29.753 83.285,-29.867C83.285,-32.939 82.574,-35.1 81.152,-36.352C79.217,-38.002 76.401,-38.827 72.704,-38.827C69.234,-38.827 66.645,-38.229 64.938,-37.035C63.858,-36.181 62.919,-34.844 62.122,-33.024C61.838,-32.227 61.326,-31.644 60.586,-31.275C59.847,-30.905 59.05,-30.777 58.197,-30.891C57.002,-31.004 56.106,-31.587 55.509,-32.64C54.912,-33.692 54.869,-34.787 55.381,-35.925C55.893,-37.177 56.519,-38.201 57.258,-38.997C57.998,-39.964 58.922,-40.818 60.032,-41.557C61.141,-42.297 62.407,-42.922 63.829,-43.434C66.617,-44.458 69.916,-44.97 73.728,-44.97C77.596,-44.97 80.64,-44.515 82.858,-43.605C85.134,-42.809 86.897,-41.728 88.149,-40.363C88.718,-39.68 89.173,-38.912 89.514,-38.059C89.856,-37.205 90.169,-36.295 90.453,-35.328C90.567,-34.645 90.652,-33.735 90.709,-32.597C90.766,-31.459 90.794,-30.066 90.794,-28.416L90.794,-18.432C90.794,-13.54 90.88,-9.899 91.05,-7.509L91.392,-7.509ZM83.2,-22.187C81.891,-21.618 80.227,-21.091 78.208,-20.608C76.188,-20.124 73.813,-19.683 71.082,-19.285C69.546,-19.058 68.238,-18.83 67.157,-18.603C66.076,-18.375 65.223,-18.119 64.597,-17.835C63.289,-17.209 62.322,-16.384 61.696,-15.36C61.013,-14.336 60.672,-13.17 60.672,-11.861C60.672,-9.927 61.411,-8.277 62.89,-6.912C64.426,-5.547 66.617,-4.864 69.461,-4.864C72.305,-4.864 74.865,-5.518 77.141,-6.827C79.36,-8.078 80.981,-9.785 82.005,-11.947C82.801,-13.54 83.2,-16.014 83.2,-19.371L83.2,-22.187Z" style="fill:white;fill-rule:nonzero;"/>
        <path d="M165.375,-7.424C166.399,-7.424 167.281,-7.068 168.021,-6.357C168.76,-5.646 169.13,-4.779 169.13,-3.755C169.13,-2.674 168.76,-1.778 168.021,-1.067C167.281,-0.356 166.399,0 165.375,0L161.194,0C160.113,0 159.231,-0.356 158.549,-1.067C157.866,-1.778 157.525,-2.674 157.525,-3.755L157.525,-3.84L157.525,-27.819C157.525,-30.777 157.269,-32.939 156.757,-34.304C156.359,-35.442 155.477,-36.466 154.111,-37.376C152.803,-38.229 151.324,-38.656 149.674,-38.656C148.024,-38.656 146.574,-38.386 145.322,-37.845C144.071,-37.305 142.904,-36.551 141.823,-35.584C140.856,-34.503 140.103,-33.166 139.562,-31.573C139.022,-29.98 138.751,-28.018 138.751,-25.685L138.751,-3.755C138.751,-2.731 138.396,-1.849 137.685,-1.109C136.974,-0.37 136.106,0 135.082,0C134.058,0 133.191,-0.37 132.479,-1.109C131.768,-1.849 131.413,-2.731 131.413,-3.755L131.413,-28.672C131.413,-30.379 131.256,-31.843 130.943,-33.067C130.631,-34.29 130.161,-35.328 129.535,-36.181C128.341,-37.831 126.378,-38.656 123.648,-38.656C122.851,-38.656 122.112,-38.571 121.429,-38.4C117.731,-37.547 115.2,-35.47 113.834,-32.171C113.038,-29.952 112.64,-26.908 112.64,-23.04L112.64,-3.755C112.64,-2.674 112.298,-1.778 111.616,-1.067C110.933,-0.356 110.051,0 108.97,0L104.789,0C103.765,0 102.869,-0.356 102.101,-1.067C101.333,-1.778 100.949,-2.674 100.949,-3.755C100.949,-4.779 101.333,-5.646 102.101,-6.357C102.869,-7.068 103.765,-7.424 104.789,-7.424L105.216,-7.424L105.216,-36.608L104.789,-36.608C103.765,-36.608 102.869,-36.992 102.101,-37.76C101.333,-38.528 100.949,-39.424 100.949,-40.448C100.949,-41.472 101.333,-42.339 102.101,-43.05C102.869,-43.762 103.765,-44.117 104.789,-44.117L108.117,-44.117C108.458,-44.117 108.714,-44.089 108.885,-44.032C109.738,-43.918 110.449,-43.562 111.018,-42.965C111.587,-42.368 111.872,-41.614 111.872,-40.704L111.872,-37.888C112.554,-39.026 113.365,-40.007 114.304,-40.832C115.242,-41.657 116.252,-42.411 117.333,-43.093C119.608,-44.402 122.225,-45.056 125.184,-45.056C128.654,-45.056 131.327,-44.402 133.205,-43.093C134.286,-42.354 135.182,-41.529 135.893,-40.619C136.604,-39.708 137.159,-38.599 137.557,-37.291C141.141,-42.467 145.72,-45.056 151.295,-45.056C155.619,-45.056 158.975,-43.833 161.365,-41.387C163.754,-39.054 164.949,-35.385 164.949,-30.379L164.949,-7.424L165.375,-7.424Z" style="fill:white;fill-rule:nonzero;"/>
        <path d="M182.698,-52.394C181.731,-52.394 180.878,-52.764 180.138,-53.504C179.398,-54.243 179.029,-55.125 179.029,-56.149L179.029,-57.258C179.029,-58.339 179.398,-59.235 180.138,-59.946C180.878,-60.658 181.731,-61.013 182.698,-61.013C183.779,-61.013 184.689,-60.658 185.429,-59.946C186.168,-59.235 186.538,-58.339 186.538,-57.258L186.538,-56.149C186.538,-55.125 186.168,-54.243 185.429,-53.504C184.689,-52.764 183.779,-52.394 182.698,-52.394ZM186.965,-7.509C187.989,-7.509 188.87,-7.14 189.61,-6.4C190.349,-5.66 190.719,-4.75 190.719,-3.669C190.719,-2.702 190.349,-1.849 189.61,-1.109C188.87,-0.37 187.989,0 186.965,0L182.698,0C181.731,0 180.878,-0.37 180.138,-1.109C179.398,-1.849 179.029,-2.702 179.029,-3.669L179.029,-3.755L179.029,-36.693L178.602,-36.693C177.578,-36.693 176.696,-37.063 175.957,-37.803C175.217,-38.542 174.847,-39.424 174.847,-40.448C174.847,-41.472 175.217,-42.354 175.957,-43.093C176.696,-43.833 177.578,-44.202 178.602,-44.202L182.698,-44.202C183.779,-44.202 184.689,-43.833 185.429,-43.093C186.168,-42.354 186.538,-41.472 186.538,-40.448L186.538,-7.509L186.965,-7.509Z" style="fill:white;fill-rule:nonzero;"/>
        <path d="M207.871,-7.424C208.952,-7.424 209.862,-7.054 210.602,-6.315C211.341,-5.575 211.711,-4.722 211.711,-3.755C211.711,-2.731 211.341,-1.849 210.602,-1.109C209.862,-0.37 208.952,0 207.871,0L203.775,0C202.694,0 201.798,-0.37 201.087,-1.109C200.376,-1.849 200.021,-2.731 200.021,-3.755L200.021,-53.418L199.679,-53.418C198.598,-53.418 197.688,-53.788 196.949,-54.528C196.209,-55.267 195.839,-56.149 195.839,-57.173C195.839,-58.197 196.209,-59.065 196.949,-59.776C197.688,-60.487 198.598,-60.842 199.679,-60.842L203.775,-60.842C204.799,-60.842 205.681,-60.487 206.421,-59.776C207.16,-59.065 207.53,-58.197 207.53,-57.173L207.53,-7.424L207.871,-7.424Z" style="fill:white;fill-rule:nonzero;"/>
        <path d="M224.255,-52.394C223.288,-52.394 222.435,-52.764 221.695,-53.504C220.956,-54.243 220.586,-55.125 220.586,-56.149L220.586,-57.258C220.586,-58.339 220.956,-59.235 221.695,-59.946C222.435,-60.658 223.288,-61.013 224.255,-61.013C225.336,-61.013 226.246,-60.658 226.986,-59.946C227.725,-59.235 228.095,-58.339 228.095,-57.258L228.095,-56.149C228.095,-55.125 227.725,-54.243 226.986,-53.504C226.246,-52.764 225.336,-52.394 224.255,-52.394ZM228.522,-7.509C229.546,-7.509 230.428,-7.14 231.167,-6.4C231.907,-5.66 232.276,-4.75 232.276,-3.669C232.276,-2.702 231.907,-1.849 231.167,-1.109C230.428,-0.37 229.546,0 228.522,0L224.255,0C223.288,0 222.435,-0.37 221.695,-1.109C220.956,-1.849 220.586,-2.702 220.586,-3.669L220.586,-3.755L220.586,-36.693L220.159,-36.693C219.135,-36.693 218.253,-37.063 217.514,-37.803C216.774,-38.542 216.404,-39.424 216.404,-40.448C216.404,-41.472 216.774,-42.354 217.514,-43.093C218.253,-43.833 219.135,-44.202 220.159,-44.202L224.255,-44.202C225.336,-44.202 226.246,-43.833 226.986,-43.093C227.725,-42.354 228.095,-41.472 228.095,-40.448L228.095,-7.509L228.522,-7.509Z" style="fill:white;fill-rule:nonzero;"/>
        <path d="M276.138,-7.509C277.162,-7.509 278.029,-7.14 278.74,-6.4C279.451,-5.66 279.807,-4.779 279.807,-3.755C279.807,-2.731 279.451,-1.863 278.74,-1.152C278.029,-0.441 277.162,-0.085 276.138,-0.085L272.468,-0.085C271.672,-0.085 270.975,-0.299 270.378,-0.725C269.78,-1.152 269.368,-1.764 269.14,-2.56C269.027,-2.844 268.941,-3.157 268.884,-3.499C268.827,-3.783 268.771,-4.096 268.714,-4.437C268.657,-4.779 268.628,-5.12 268.628,-5.461C265.784,-3.129 263.139,-1.479 260.692,-0.512C257.962,0.455 255.203,0.939 252.415,0.939C247.579,0.939 243.882,-0.256 241.322,-2.645C238.762,-4.921 237.482,-7.936 237.482,-11.691C237.482,-13.966 237.965,-15.9 238.932,-17.493C239.9,-19.371 241.151,-20.821 242.687,-21.845C243.483,-22.414 244.351,-22.898 245.29,-23.296C246.228,-23.694 247.181,-24.035 248.148,-24.32C248.888,-24.491 249.798,-24.661 250.879,-24.832C251.96,-25.003 253.24,-25.202 254.719,-25.429C257.791,-25.771 260.408,-26.155 262.57,-26.581C264.731,-27.008 266.523,-27.449 267.946,-27.904C268.003,-28.416 268.031,-28.843 268.031,-29.184C268.031,-29.525 268.031,-29.753 268.031,-29.867C268.031,-32.939 267.32,-35.1 265.898,-36.352C263.963,-38.002 261.147,-38.827 257.45,-38.827C253.979,-38.827 251.391,-38.229 249.684,-37.035C248.603,-36.181 247.665,-34.844 246.868,-33.024C246.584,-32.227 246.072,-31.644 245.332,-31.275C244.593,-30.905 243.796,-30.777 242.943,-30.891C241.748,-31.004 240.852,-31.587 240.255,-32.64C239.658,-33.692 239.615,-34.787 240.127,-35.925C240.639,-37.177 241.265,-38.201 242.004,-38.997C242.744,-39.964 243.668,-40.818 244.778,-41.557C245.887,-42.297 247.153,-42.922 248.575,-43.434C251.363,-44.458 254.662,-44.97 258.474,-44.97C262.342,-44.97 265.386,-44.515 267.604,-43.605C269.88,-42.809 271.643,-41.728 272.895,-40.363C273.464,-39.68 273.919,-38.912 274.26,-38.059C274.602,-37.205 274.914,-36.295 275.199,-35.328C275.313,-34.645 275.398,-33.735 275.455,-32.597C275.512,-31.459 275.54,-30.066 275.54,-28.416L275.54,-18.432C275.54,-13.54 275.626,-9.899 275.796,-7.509L276.138,-7.509ZM267.946,-22.187C266.637,-21.618 264.973,-21.091 262.954,-20.608C260.934,-20.124 258.559,-19.683 255.828,-19.285C254.292,-19.058 252.984,-18.83 251.903,-18.603C250.822,-18.375 249.969,-18.119 249.343,-17.835C248.035,-17.209 247.067,-16.384 246.442,-15.36C245.759,-14.336 245.418,-13.17 245.418,-11.861C245.418,-9.927 246.157,-8.277 247.636,-6.912C249.172,-5.547 251.363,-4.864 254.207,-4.864C257.051,-4.864 259.611,-5.518 261.887,-6.827C264.106,-8.078 265.727,-9.785 266.751,-11.947C267.547,-13.54 267.946,-16.014 267.946,-19.371L267.946,-22.187Z" style="fill:white;fill-rule:nonzero;"/>
        <path d="M310.527,-44.032C311.437,-43.747 312.091,-43.193 312.489,-42.368C312.888,-41.543 312.916,-40.704 312.575,-39.851C312.29,-39.168 311.821,-38.627 311.167,-38.229C310.513,-37.831 309.816,-37.689 309.076,-37.803C308.45,-37.916 307.881,-37.973 307.369,-37.973C306.857,-37.973 306.317,-37.916 305.748,-37.803C305.122,-37.689 304.454,-37.504 303.743,-37.248C303.032,-36.992 302.392,-36.693 301.823,-36.352C300.23,-35.385 299.092,-33.849 298.41,-31.744C297.556,-29.07 297.13,-26.169 297.13,-23.04L297.13,-3.584C297.13,-2.56 296.774,-1.678 296.063,-0.939C295.352,-0.199 294.484,0.171 293.46,0.171C292.379,0.171 291.469,-0.199 290.73,-0.939C289.99,-1.678 289.62,-2.56 289.62,-3.584L289.62,-36.693L288.682,-36.693C287.714,-36.693 286.861,-37.063 286.122,-37.803C285.382,-38.542 285.012,-39.395 285.012,-40.363C285.012,-41.387 285.382,-42.268 286.122,-43.008C286.861,-43.747 287.714,-44.117 288.682,-44.117L292.692,-44.117C292.806,-44.117 292.934,-44.103 293.076,-44.074C293.218,-44.046 293.375,-44.032 293.546,-44.032C294.342,-43.918 295.01,-43.534 295.551,-42.88C296.091,-42.226 296.362,-41.5 296.362,-40.704L296.362,-37.376C297.272,-38.969 298.026,-40.178 298.623,-41.003C299.22,-41.827 299.889,-42.467 300.628,-42.922C301.425,-43.434 302.292,-43.861 303.231,-44.202C304.169,-44.544 305.065,-44.714 305.919,-44.714C306.715,-44.714 307.497,-44.672 308.265,-44.586C309.033,-44.501 309.787,-44.316 310.527,-44.032Z" style="fill:white;fill-rule:nonzero;"/>
    </g>
</svg>
