<?xml version="1.0" encoding="UTF-8" standalone="no"?>
<!DOCTYPE svg PUBLIC "-//W3C//DTD SVG 1.1//EN" "http://www.w3.org/Graphics/SVG/1.1/DTD/svg11.dtd">
<svg width="100%" height="100%" viewBox="0 0 450 159" version="1.1" xmlns="http://www.w3.org/2000/svg" xmlns:xlink="http://www.w3.org/1999/xlink" xml:space="preserve" xmlns:serif="http://www.serif.com/" style="fill-rule:evenodd;clip-rule:evenodd;stroke-linejoin:round;stroke-miterlimit:1.41421;">
    <g transform="matrix(1.06816,0,0,1.41684,-179.03,-707.596)">
        <path d="M537.875,545.659C537.875,520.42 510.696,499.93 477.219,499.93L278.73,499.93C245.252,499.93 218.073,520.42 218.073,545.659L218.073,566.076C218.073,591.315 245.252,611.805 278.73,611.805L477.219,611.805C510.696,611.805 537.875,591.315 537.875,566.076L537.875,545.659Z" style="fill:rgb(39,183,211);"/>
    </g>
    <g transform="matrix(1,0,0,1,74.5957,119.059)">
        <path d="M74.006,-80.92C75.442,-80.92 76.613,-80.429 77.52,-79.446C78.426,-78.464 78.88,-77.331 78.88,-76.046C78.88,-74.686 78.426,-73.553 77.52,-72.646C76.613,-71.74 75.442,-71.286 74.006,-71.286L73.326,-71.286L73.326,-7.14C73.326,-5.176 72.628,-3.494 71.23,-2.097C69.832,-0.699 68.151,0 66.186,0C65.053,0 63.939,-0.283 62.843,-0.85C61.748,-1.417 60.898,-2.191 60.293,-3.173L19.947,-63.58L19.947,-5.213C19.947,-3.702 19.455,-2.456 18.473,-1.473C17.491,-0.491 16.282,0 14.847,0L14.733,0L8.953,0C7.593,0 6.46,-0.472 5.553,-1.417C4.647,-2.361 4.193,-3.513 4.193,-4.873C4.193,-6.158 4.647,-7.272 5.553,-8.217C6.46,-9.161 7.593,-9.633 8.953,-9.633L9.747,-9.633L9.747,-73.666C9.747,-75.631 10.446,-77.331 11.843,-78.766C13.241,-80.202 14.922,-80.92 16.887,-80.92C19.455,-80.92 21.458,-79.824 22.893,-77.633L63.126,-17.453L63.126,-75.706C63.126,-76.991 63.504,-78.105 64.26,-79.05C65.015,-79.994 65.998,-80.58 67.206,-80.806C67.358,-80.806 67.528,-80.825 67.716,-80.863C67.905,-80.901 68.075,-80.92 68.226,-80.92L74.006,-80.92Z" style="fill:white;fill-rule:nonzero;"/>
        <path d="M88.513,-29.127C88.513,-40.007 91.535,-48.167 97.58,-53.607C102.642,-57.913 108.875,-60.066 116.28,-60.066C124.364,-60.066 130.975,-57.422 136.113,-52.133C141.326,-46.769 143.933,-39.364 143.933,-29.92C143.933,-22.289 142.762,-16.358 140.42,-12.127C138.304,-7.82 135.017,-4.382 130.56,-1.813C126.177,0.529 121.417,1.7 116.28,1.7C107.969,1.7 101.282,-0.944 96.22,-6.233C91.082,-11.522 88.513,-19.153 88.513,-29.127ZM98.713,-29.127C98.713,-21.647 100.375,-16.018 103.7,-12.24C107.1,-8.387 111.293,-6.46 116.28,-6.46C121.191,-6.46 125.346,-8.387 128.746,-12.24C131.995,-15.942 133.62,-21.684 133.62,-29.467C133.62,-36.795 131.957,-42.349 128.633,-46.127C125.384,-49.904 121.266,-51.793 116.28,-51.793C111.217,-51.793 107.024,-49.904 103.7,-46.127C102.113,-44.238 100.885,-41.895 100.016,-39.1C99.147,-36.304 98.713,-32.98 98.713,-29.127Z" style="fill:white;fill-rule:nonzero;"/>
        <path d="M190.966,-18.473C192.175,-18.7 193.289,-18.511 194.309,-17.907C195.329,-17.302 196.028,-16.433 196.406,-15.3C197.162,-13.184 198.408,-11.447 200.146,-10.087C202.564,-7.971 206.115,-6.913 210.799,-6.913C215.484,-6.913 218.884,-7.858 220.999,-9.747C223.266,-11.56 224.399,-13.751 224.399,-16.32C224.399,-18.587 223.417,-20.362 221.453,-21.647C220.093,-22.553 216.655,-23.687 211.139,-25.047C203.584,-27.011 198.484,-28.635 195.839,-29.92C192.968,-31.28 190.815,-33.131 189.379,-35.473C187.944,-37.815 187.226,-40.46 187.226,-43.407C187.226,-46.127 187.831,-48.582 189.039,-50.773C190.248,-52.964 191.873,-54.853 193.913,-56.44C195.424,-57.498 197.577,-58.442 200.373,-59.273C203.244,-60.104 206.115,-60.52 208.986,-60.52C213.595,-60.52 217.675,-59.84 221.226,-58.48C224.702,-57.12 227.308,-55.307 229.046,-53.04C229.726,-52.133 230.293,-51.113 230.746,-49.98C231.426,-48.469 231.35,-46.995 230.519,-45.56C229.688,-44.124 228.479,-43.331 226.893,-43.18C225.759,-43.029 224.72,-43.218 223.776,-43.747C222.832,-44.275 222.133,-45.031 221.679,-46.013C221.075,-47.373 220.13,-48.62 218.846,-49.753C216.73,-51.415 213.708,-52.247 209.779,-52.247C205.171,-52.247 201.884,-51.491 199.919,-49.98C197.955,-48.544 196.973,-46.769 196.973,-44.653C196.973,-43.293 197.351,-42.122 198.106,-41.14C199.013,-40.007 200.297,-39.1 201.959,-38.42C202.488,-38.269 203.489,-37.967 204.963,-37.513C206.436,-37.06 208.382,-36.531 210.799,-35.927C217.902,-33.962 222.888,-32.375 225.759,-31.167C228.479,-30.033 230.67,-28.295 232.333,-25.953C233.919,-23.687 234.713,-20.815 234.713,-17.34C234.713,-14.091 233.73,-10.956 231.766,-7.933C229.877,-5.062 227.082,-2.758 223.379,-1.02C219.602,0.567 215.408,1.36 210.799,1.36C203.168,1.36 197.313,-0.227 193.233,-3.4C190.513,-5.516 188.473,-8.349 187.113,-11.9C186.508,-13.411 186.622,-14.828 187.453,-16.15C188.284,-17.472 189.455,-18.247 190.966,-18.473Z" style="fill:white;fill-rule:nonzero;"/>
        <path d="M274.946,-65.28C274.039,-65.28 273.265,-65.488 272.623,-65.903C271.98,-66.319 271.47,-66.848 271.093,-67.49C270.715,-68.132 270.526,-68.85 270.526,-69.643C270.526,-70.436 270.753,-71.211 271.206,-71.966L277.213,-81.146C278.27,-82.809 279.781,-83.64 281.746,-83.64C282.955,-83.64 283.975,-83.319 284.806,-82.676C285.637,-82.034 286.26,-81.26 286.676,-80.353C287.091,-79.446 287.224,-78.464 287.072,-77.406C286.921,-76.349 286.43,-75.404 285.599,-74.573L278.006,-66.526C277.175,-65.695 276.155,-65.28 274.946,-65.28ZM291.266,-18.247C292.172,-18.096 292.966,-17.774 293.646,-17.283C294.326,-16.792 294.855,-16.207 295.232,-15.527C295.61,-14.847 295.818,-14.091 295.856,-13.26C295.894,-12.429 295.724,-11.636 295.346,-10.88C294.439,-9.369 293.457,-8.009 292.399,-6.8C291.341,-5.591 290.132,-4.533 288.772,-3.627C286.581,-1.813 284.107,-0.51 281.349,0.283C278.591,1.077 275.513,1.473 272.113,1.473C263.499,1.473 256.661,-1.171 251.599,-6.46C246.613,-11.673 244.119,-19.078 244.119,-28.673C244.119,-33.735 244.724,-38.137 245.933,-41.877C247.141,-45.617 249.068,-48.884 251.713,-51.68C256.699,-57.12 263.31,-59.84 271.546,-59.84C279.404,-59.84 285.788,-57.158 290.699,-51.793C295.761,-46.655 298.292,-39.138 298.292,-29.24C298.292,-28.484 298.028,-27.88 297.499,-27.427C296.97,-26.973 296.366,-26.747 295.686,-26.747L254.433,-26.747C254.81,-20.098 256.624,-15.187 259.873,-12.013C263.121,-8.462 267.239,-6.687 272.226,-6.687C275.777,-6.687 278.837,-7.631 281.406,-9.52C282.237,-10.276 283.087,-11.144 283.956,-12.127C284.825,-13.109 285.561,-14.242 286.166,-15.527C286.695,-16.433 287.431,-17.151 288.376,-17.68C289.32,-18.209 290.284,-18.398 291.266,-18.247ZM254.999,-34.68L287.752,-34.68C287.526,-37.249 287.091,-39.44 286.449,-41.253C285.807,-43.067 284.957,-44.615 283.899,-45.9C280.953,-49.753 276.835,-51.68 271.546,-51.68C267.013,-51.68 263.197,-50.169 260.099,-47.147C256.926,-44.2 255.226,-40.044 254.999,-34.68Z" style="fill:white;fill-rule:nonzero;"/>
    </g>
</svg>
